^C:\USERS\1\SOURCE\REPOS\AVFILTERSYSTEMDLL\AVFILTERSYSTEMDLL\PCH.CPP
C:\USERS\1\SOURCE\REPOS\AVFILTERSYSTEMDLL\AVFILTERSYSTEMDLL\DEBUG\AVFILTERSYSTEMDLL.PCH
C:\USERS\1\SOURCE\REPOS\AVFILTERSYSTEMDLL\AVFILTERSYSTEMDLL\DEBUG\VC142.PDB
C:\USERS\1\SOURCE\REPOS\AVFILTERSYSTEMDLL\AVFILTERSYSTEMDLL\DEBUG\VC142.IDB
C:\USERS\1\SOURCE\REPOS\AVFILTERSYSTEMDLL\AVFILTERSYSTEMDLL\DEBUG\PCH.OBJ
^C:\USERS\1\SOURCE\REPOS\AVFILTERSYSTEMDLL\AVFILTERSYSTEMDLL\COMMPORTCLIENT.CPP|C:\USERS\1\SOURCE\REPOS\AVFILTERSYSTEMDLL\AVFILTERSYSTEMDLL\DEBUG.CPP|C:\USERS\1\SOURCE\REPOS\AVFILTERSYSTEMDLL\AVFILTERSYSTEMDLL\DLLMAIN.CPP|C:\USERS\1\SOURCE\REPOS\AVFILTERSYSTEMDLL\AVFILTERSYSTEMDLL\DRIVERLISTENERTHREAD.CPP|C:\USERS\1\SOURCE\REPOS\AVFILTERSYSTEMDLL\AVFILTERSYSTEMDLL\DRIVERLOAD.CPP|C:\USERS\1\SOURCE\REPOS\AVFILTERSYSTEMDLL\AVFILTERSYSTEMDLL\EXPORT.CPP|C:\USERS\1\SOURCE\REPOS\AVFILTERSYSTEMDLL\AVFILTERSYSTEMDLL\PIPECLIENT.CPP|C:\USERS\1\SOURCE\REPOS\AVFILTERSYSTEMDLL\AVFILTERSYSTEMDLL\REGISTRY.CPP
C:\USERS\1\SOURCE\REPOS\AVFILTERSYSTEMDLL\AVFILTERSYSTEMDLL\DEBUG\VC142.PDB
C:\USERS\1\SOURCE\REPOS\AVFILTERSYSTEMDLL\AVFILTERSYSTEMDLL\DEBUG\VC142.IDB
C:\USERS\1\SOURCE\REPOS\AVFILTERSYSTEMDLL\AVFILTERSYSTEMDLL\DEBUG\REGISTRY.OBJ
C:\USERS\1\SOURCE\REPOS\AVFILTERSYSTEMDLL\AVFILTERSYSTEMDLL\DEBUG\PIPECLIENT.OBJ
C:\USERS\1\SOURCE\REPOS\AVFILTERSYSTEMDLL\AVFILTERSYSTEMDLL\DEBUG\EXPORT.OBJ
C:\USERS\1\SOURCE\REPOS\AVFILTERSYSTEMDLL\AVFILTERSYSTEMDLL\DEBUG\DRIVERLOAD.OBJ
C:\USERS\1\SOURCE\REPOS\AVFILTERSYSTEMDLL\AVFILTERSYSTEMDLL\DEBUG\DLLMAIN.OBJ
C:\USERS\1\SOURCE\REPOS\AVFILTERSYSTEMDLL\AVFILTERSYSTEMDLL\DEBUG\DEBUG.OBJ
C:\USERS\1\SOURCE\REPOS\AVFILTERSYSTEMDLL\AVFILTERSYSTEMDLL\DEBUG\DRIVERLISTENERTHREAD.OBJ
C:\USERS\1\SOURCE\REPOS\AVFILTERSYSTEMDLL\AVFILTERSYSTEMDLL\DEBUG\COMMPORTCLIENT.OBJ
^C:\USERS\1\SOURCE\REPOS\AVFILTERSYSTEMDLL\AVFILTERSYSTEMDLL\COMMPORTCLIENT.CPP
C:\USERS\1\SOURCE\REPOS\AVFILTERSYSTEMDLL\AVFILTERSYSTEMDLL\DEBUG\VC142.PDB
^C:\USERS\1\SOURCE\REPOS\AVFILTERSYSTEMDLL\AVFILTERSYSTEMDLL\DRIVERLISTENERTHREAD.CPP
C:\USERS\1\SOURCE\REPOS\AVFILTERSYSTEMDLL\AVFILTERSYSTEMDLL\DEBUG\VC142.PDB
^C:\USERS\1\SOURCE\REPOS\AVFILTERSYSTEMDLL\AVFILTERSYSTEMDLL\DEBUG.CPP
C:\USERS\1\SOURCE\REPOS\AVFILTERSYSTEMDLL\AVFILTERSYSTEMDLL\DEBUG\VC142.PDB
^C:\USERS\1\SOURCE\REPOS\AVFILTERSYSTEMDLL\AVFILTERSYSTEMDLL\DLLMAIN.CPP
C:\USERS\1\SOURCE\REPOS\AVFILTERSYSTEMDLL\AVFILTERSYSTEMDLL\DEBUG\VC142.PDB
^C:\USERS\1\SOURCE\REPOS\AVFILTERSYSTEMDLL\AVFILTERSYSTEMDLL\DRIVERLOAD.CPP
C:\USERS\1\SOURCE\REPOS\AVFILTERSYSTEMDLL\AVFILTERSYSTEMDLL\DEBUG\VC142.PDB
^C:\USERS\1\SOURCE\REPOS\AVFILTERSYSTEMDLL\AVFILTERSYSTEMDLL\EXPORT.CPP
C:\USERS\1\SOURCE\REPOS\AVFILTERSYSTEMDLL\AVFILTERSYSTEMDLL\DEBUG\VC142.PDB
^C:\USERS\1\SOURCE\REPOS\AVFILTERSYSTEMDLL\AVFILTERSYSTEMDLL\PIPECLIENT.CPP
C:\USERS\1\SOURCE\REPOS\AVFILTERSYSTEMDLL\AVFILTERSYSTEMDLL\DEBUG\VC142.PDB
^C:\USERS\1\SOURCE\REPOS\AVFILTERSYSTEMDLL\AVFILTERSYSTEMDLL\REGISTRY.CPP
C:\USERS\1\SOURCE\REPOS\AVFILTERSYSTEMDLL\AVFILTERSYSTEMDLL\DEBUG\VC142.PDB
