^C:\USERS\1\SOURCE\REPOS\AVFILTERSYSTEMDLL\AVFILTERSYSTEMDLL\X64\RELEASE\COMMPORTCLIENT.OBJ|C:\USERS\1\SOURCE\REPOS\AVFILTERSYSTEMDLL\AVFILTERSYSTEMDLL\X64\RELEASE\DEBUG.OBJ|C:\USERS\1\SOURCE\REPOS\AVFILTERSYSTEMDLL\AVFILTERSYSTEMDLL\X64\RELEASE\DLLMAIN.OBJ|C:\USERS\1\SOURCE\REPOS\AVFILTERSYSTEMDLL\AVFILTERSYSTEMDLL\X64\RELEASE\DRIVERLISTENERTHREAD.OBJ|C:\USERS\1\SOURCE\REPOS\AVFILTERSYSTEMDLL\AVFILTERSYSTEMDLL\X64\RELEASE\DRIVERLOAD.OBJ|C:\USERS\1\SOURCE\REPOS\AVFILTERSYSTEMDLL\AVFILTERSYSTEMDLL\X64\RELEASE\EXPORT.OBJ|C:\USERS\1\SOURCE\REPOS\AVFILTERSYSTEMDLL\AVFILTERSYSTEMDLL\X64\RELEASE\LOGDLLMODULE.OBJ|C:\USERS\1\SOURCE\REPOS\AVFILTERSYSTEMDLL\AVFILTERSYSTEMDLL\X64\RELEASE\PCH.OBJ|C:\USERS\1\SOURCE\REPOS\AVFILTERSYSTEMDLL\AVFILTERSYSTEMDLL\X64\RELEASE\REGISTRY.OBJ
C:\USERS\1\SOURCE\REPOS\AVFILTERSYSTEMDLL\AVFILTERSYSTEMDLL\JSONCPP\JSONCPP.LIB
C:\PROGRAM FILES (X86)\WINDOWS KITS\10\LIB\10.0.18362.0\UM\X64\KERNEL32.LIB
C:\PROGRAM FILES (X86)\WINDOWS KITS\10\LIB\10.0.18362.0\UM\X64\USER32.LIB
C:\PROGRAM FILES (X86)\WINDOWS KITS\10\LIB\10.0.18362.0\UM\X64\GDI32.LIB
C:\PROGRAM FILES (X86)\WINDOWS KITS\10\LIB\10.0.18362.0\UM\X64\WINSPOOL.LIB
C:\PROGRAM FILES (X86)\WINDOWS KITS\10\LIB\10.0.18362.0\UM\X64\COMDLG32.LIB
C:\PROGRAM FILES (X86)\WINDOWS KITS\10\LIB\10.0.18362.0\UM\X64\ADVAPI32.LIB
C:\PROGRAM FILES (X86)\WINDOWS KITS\10\LIB\10.0.18362.0\UM\X64\SHELL32.LIB
C:\PROGRAM FILES (X86)\WINDOWS KITS\10\LIB\10.0.18362.0\UM\X64\OLE32.LIB
C:\PROGRAM FILES (X86)\WINDOWS KITS\10\LIB\10.0.18362.0\UM\X64\OLEAUT32.LIB
C:\PROGRAM FILES (X86)\WINDOWS KITS\10\LIB\10.0.18362.0\UM\X64\UUID.LIB
C:\PROGRAM FILES (X86)\WINDOWS KITS\10\LIB\10.0.18362.0\UM\X64\ODBC32.LIB
C:\PROGRAM FILES (X86)\WINDOWS KITS\10\LIB\10.0.18362.0\UM\X64\ODBCCP32.LIB
C:\USERS\1\SOURCE\REPOS\AVFILTERSYSTEMDLL\AVFILTERSYSTEMDLL\X64\RELEASE\COMMPORTCLIENT.OBJ
C:\USERS\1\SOURCE\REPOS\AVFILTERSYSTEMDLL\AVFILTERSYSTEMDLL\X64\RELEASE\DRIVERLISTENERTHREAD.OBJ
C:\USERS\1\SOURCE\REPOS\AVFILTERSYSTEMDLL\AVFILTERSYSTEMDLL\X64\RELEASE\DEBUG.OBJ
C:\USERS\1\SOURCE\REPOS\AVFILTERSYSTEMDLL\AVFILTERSYSTEMDLL\X64\RELEASE\DLLMAIN.OBJ
C:\USERS\1\SOURCE\REPOS\AVFILTERSYSTEMDLL\AVFILTERSYSTEMDLL\X64\RELEASE\DRIVERLOAD.OBJ
C:\USERS\1\SOURCE\REPOS\AVFILTERSYSTEMDLL\AVFILTERSYSTEMDLL\X64\RELEASE\EXPORT.OBJ
C:\USERS\1\SOURCE\REPOS\AVFILTERSYSTEMDLL\AVFILTERSYSTEMDLL\X64\RELEASE\LOGDLLMODULE.OBJ
C:\USERS\1\SOURCE\REPOS\AVFILTERSYSTEMDLL\AVFILTERSYSTEMDLL\X64\RELEASE\PCH.OBJ
C:\USERS\1\SOURCE\REPOS\AVFILTERSYSTEMDLL\AVFILTERSYSTEMDLL\X64\RELEASE\REGISTRY.OBJ
C:\WINDOWS\GLOBALIZATION\SORTING\SORTDEFAULT.NLS
C:\PROGRAM FILES (X86)\MICROSOFT VISUAL STUDIO\2019\COMMUNITY\VC\TOOLS\MSVC\14.22.27905\BIN\HOSTX86\X64\C2.DLL
C:\PROGRAM FILES (X86)\MICROSOFT VISUAL STUDIO\2019\COMMUNITY\VC\TOOLS\MSVC\14.22.27905\LIB\SPECTRE\X64\MSVCPRT.LIB
C:\PROGRAM FILES (X86)\WINDOWS KITS\10\LIB\10.0.18362.0\UM\X64\FLTLIB.LIB
C:\PROGRAM FILES (X86)\MICROSOFT VISUAL STUDIO\2019\COMMUNITY\VC\TOOLS\MSVC\14.22.27905\LIB\SPECTRE\X64\MSVCRT.LIB
C:\PROGRAM FILES (X86)\MICROSOFT VISUAL STUDIO\2019\COMMUNITY\VC\TOOLS\MSVC\14.22.27905\LIB\SPECTRE\X64\OLDNAMES.LIB
C:\PROGRAM FILES (X86)\MICROSOFT VISUAL STUDIO\2019\COMMUNITY\VC\TOOLS\MSVC\14.22.27905\LIB\SPECTRE\X64\VCRUNTIME.LIB
C:\PROGRAM FILES (X86)\WINDOWS KITS\10\LIB\10.0.18362.0\UCRT\X64\UCRT.LIB
C:\WINDOWS\SYSTEM32\TZRES.DLL
C:\PROGRAM FILES (X86)\MICROSOFT VISUAL STUDIO\2019\COMMUNITY\VC\TOOLS\MSVC\14.22.27905\BIN\HOSTX86\X64\1033\LINKUI.DLL
C:\PROGRAM FILES (X86)\MICROSOFT VISUAL STUDIO\2019\COMMUNITY\VC\TOOLS\MSVC\14.22.27905\BIN\HOSTX86\X64\CVTRES.EXE
C:\PROGRAM FILES (X86)\MICROSOFT VISUAL STUDIO\2019\COMMUNITY\VC\TOOLS\MSVC\14.22.27905\BIN\HOSTX86\X64\MSPDBSRV.EXE
